[
    {
        "key": "shift+alt+up",
        "command": "-editor.action.moveLinesUpAction",
        "when": "editorTextFocus && !editorReadonly"
    },
    {
        "key": "shift+alt+up",
        "command": "-notebook.cell.copyUp",
        "when": "notebookEditorFocused && !inputFocus"
    },
    {
        "key": "shift+alt+up",
        "command": "-markdown.extension.onCopyLineUp",
        "when": "editorTextFocus && !editorReadonly && !suggestWidgetVisible && editorLangId == 'markdown'"
    },
    {
        "key": "shift+alt+down",
        "command": "-editor.action.moveLinesDownAction",
        "when": "editorTextFocus && !editorReadonly"
    },
    {
        "key": "shift+alt+down",
        "command": "-notebook.cell.copyDown",
        "when": "notebookEditorFocused && !inputFocus"
    },
    {
        "key": "shift+alt+down",
        "command": "-markdown.extension.onCopyLineDown",
        "when": "editorTextFocus && !editorReadonly && !suggestWidgetVisible && editorLangId == 'markdown'"
    },
    {
        "key": "tab",
        "command": "-tab",
        "when": "editorTextFocus && !editorReadonly && !editorTabMovesFocus"
    },
    {
        "key": "tab",
        "command": "-markdown.extension.onTabKey",
        "when": "editorTextFocus && !editorReadonly && !editorTabMovesFocus && !hasOtherSuggestions && !hasSnippetCompletions && !inSnippetMode && !suggestWidgetVisible && editorLangId == 'markdown'"
    },
    {
        "key": "ctrl+d",
        "command": "-editor.action.copyLinesDownAction",
        "when": "editorTextFocus && !editorHasSelection && !editorReadonly"
    },
    {
        "key": "ctrl+d",
        "command": "-editor.action.duplicateSelection",
        "when": "editorHasSelection && editorTextFocus && !editorReadonly"
    },
    {
        "key": "tab",
        "command": "tab",
        "when": "!inlineSuggestionVisible && editorTextFocus && !editorReadonly && !editorTabMovesFocus"
    },
    {
        "key": "alt+enter",
        "command": "acceptSelectedSuggestion",
        "when": "suggestWidgetVisible && textInputFocus"
    },
    {
        "key": "tab",
        "command": "-acceptSelectedSuggestion",
        "when": "suggestWidgetVisible && textInputFocus"
    },
    {
        "key": "tab",
        "command": "editor.action.inlineSuggest.commit",
        "when": "inlineSuggestionHasIndentationLessThanTabSize && inlineSuggestionVisible && !editorTabMovesFocus"
    },
    {
        "key": "tab",
        "command": "-editor.action.inlineSuggest.commit",
        "when": "inlineSuggestionHasIndentationLessThanTabSize && inlineSuggestionVisible && !editorTabMovesFocus"
    },
    {
        "key": "alt+enter",
        "command": "workbench.action.terminal.openNativeConsole",
        "when": "!terminalFocus"
    },
    {
        "key": "ctrl+w",
        "command": "-editor.action.smartSelect.grow",
        "when": "editorTextFocus"
    },
    {
        "key": "ctrl+shift+alt+i",
        "command": "changeEditorIndentation"
    },
    {
        "key": "ctrl+shift+o",
        "command": "workbench.action.openRecent"
    },
    {
        "key": "ctrl+r",
        "command": "-workbench.action.openRecent"
    },
    {
        "key": "ctrl+shift+o",
        "command": "-workbench.action.gotoSymbol"
    },
    {
        "key": "ctrl+shift+o",
        "command": "-cgroovy.organizeImports"
    },
    {
        "key": "ctrl+shift+c",
        "command": "-copyFilePath",
        "when": "!editorFocus"
    },
    {
        "key": "ctrl+shift+n",
        "command": "-workbench.action.quickOpen"
    },
    {
        "key": "ctrl+shift+n",
        "command": "-workbench.action.newWindow"
    },
    {
        "key": "ctrl+n",
        "command": "-workbench.action.files.newUntitledFile"
    },
    {
        "key": "ctrl+n",
        "command": "-workbench.action.showAllSymbols"
    },
    {
        "key": "ctrl+n",
        "command": "-extension.vim_ctrl+n",
        "when": "editorTextFocus && vim.active && vim.use<C-n> && !inDebugRepl || vim.active && vim.use<C-n> && !inDebugRepl && vim.mode == 'CommandlineInProgress' || vim.active && vim.use<C-n> && !inDebugRepl && vim.mode == 'SearchInProgressMode'"
    }
]